[
  {
    "full_name": "admin",
    "username": "380689444824",
    "telegram_id": "380689444824"
  },
  {
    "full_name": "Gora",
    "username": "igoroalex",
    "telegram_id": "607040616"
  },
  {
    "full_name": "Mulder",
    "username": "Fox",
    "telegram_id": "FoxMulder"
  },
  {
    "full_name": "Scully",
    "username": "Dana",
    "telegram_id": "DanaScully"
  }
]
