[
  {
    "user_id": 2,
    "start_time": "08:00",
    "end_time": "19:00"
  },
  {
    "user_id": 1,
    "start_time": "10:00",
    "end_time": "18:00"
  },
  {
    "user_id": 3,
    "start_time": "08:00",
    "end_time": "19:00"
  }
]
